…
---

    Code
      ww_local_geary_pvalue(worldclim_simulation, response, response)
    Output
      # A tibble: 10,000 x 3
         .metric            .estimator .estimate
         <chr>              <chr>          <dbl>
       1 local_geary_pvalue standard         NaN
       2 local_geary_pvalue standard         NaN
       3 local_geary_pvalue standard         NaN
       4 local_geary_pvalue standard         NaN
       5 local_geary_pvalue standard         NaN
       6 local_geary_pvalue standard         NaN
       7 local_geary_pvalue standard         NaN
       8 local_geary_pvalue standard         NaN
       9 local_geary_pvalue standard         NaN
      10 local_geary_pvalue standard         NaN
      # i 9,990 more rows

# other generic srr standards

    Code
      withr::with_seed(123, ww_local_geary_pvalue(worldclim_loaded, bio13, bio19))
    Output
      # A tibble: 10,000 x 3
         .metric            .estimator .estimate
         <chr>              <chr>          <dbl>
       1 local_geary_pvalue standard       0.765
       2 local_geary_pvalue standard       0.794
       3 local_geary_pvalue standard       0.687
       4 local_geary_pvalue standard       0.767
       5 local_geary_pvalue standard       0.691
       6 local_geary_pvalue standard       0.122
       7 local_geary_pvalue standard       0.759
       8 local_geary_pvalue standard       0.731
       9 local_geary_pvalue standard       0.774
      10 local_geary_pvalue standard       0.686
      # i 9,990 more rows

---

    Code
      withr::with_seed(123, ww_local_geary_pvalue(worldclim_loaded, bio13, bio19))
    Output
      # A tibble: 10,000 x 3
         .metric            .estimator .estimate
         <chr>              <chr>          <dbl>
       1 local_geary_pvalue standard       0.765
       2 local_geary_pvalue standard       0.794
       3 local_geary_pvalue standard       0.687
       4 local_geary_pvalue standard       0.767
       5 local_geary_pvalue standard       0.691
       6 local_geary_pvalue standard       0.122
       7 local_geary_pvalue standard       0.759
       8 local_geary_pvalue standard       0.731
       9 local_geary_pvalue standard       0.774
      10 local_geary_pvalue standard       0.686
      # i 9,990 more rows
…
---

    Code
      withr::with_seed(123, ww_local_geary_pvalue(worldclim_loaded, bio13, bio19))
    Output
      # A tibble: 10,000 x 3
         .metric            .estimator .estimate
         <chr>              <chr>          <dbl>
       1 local_geary_pvalue standard       0.765
       2 local_geary_pvalue standard       0.794
       3 local_geary_pvalue standard       0.687
       4 local_geary_pvalue standard       0.767
       5 local_geary_pvalue standard       0.691
       6 local_geary_pvalue standard       0.122
       7 local_geary_pvalue standard       0.759
       8 local_geary_pvalue standard       0.731
       9 local_geary_pvalue standard       0.774
      10 local_geary_pvalue standard       0.686
      # i 9,990 more rows

---

    Code
      withr::with_seed(123, ww_local_geary_pvalue(worldclim_loaded, bio13, bio19,
        function(data) ww_build_weights(ww_make_point_neighbors(data, k = 5))))
    Output
      # A tibble: 10,000 x 3
         .metric            .estimator .estimate
         <chr>              <chr>          <dbl>
       1 local_geary_pvalue standard    5.31e- 1
       2 local_geary_pvalue standard    4.63e- 1
       3 local_geary_pvalue standard    4.60e- 1
       4 local_geary_pvalue standard    4.55e- 1
       5 local_geary_pvalue standard    4.81e- 1
       6 local_geary_pvalue standard    7.21e- 4
       7 local_geary_pvalue standard    4.19e-16
       8 local_geary_pvalue standard    4.50e- 1
       9 local_geary_pvalue standard    5.02e- 1
      10 local_geary_pvalue standard    4.72e- 1
      # i 9,990 more rows
…
