…
---

    Code
      ww_local_getis_ord_g_pvalue(worldclim_simulation, response, response)
    Output
      # A tibble: 10,000 x 3
         .metric                  .estimator .estimate
         <chr>                    <chr>          <dbl>
       1 local_getis_ord_g_pvalue standard         NaN
       2 local_getis_ord_g_pvalue standard         NaN
       3 local_getis_ord_g_pvalue standard         NaN
       4 local_getis_ord_g_pvalue standard         NaN
       5 local_getis_ord_g_pvalue standard         NaN
       6 local_getis_ord_g_pvalue standard         NaN
       7 local_getis_ord_g_pvalue standard         NaN
       8 local_getis_ord_g_pvalue standard         NaN
       9 local_getis_ord_g_pvalue standard         NaN
      10 local_getis_ord_g_pvalue standard         NaN
      # i 9,990 more rows

# other generic srr standards

    Code
      withr::with_seed(123, ww_local_getis_ord_g_pvalue(worldclim_loaded, bio13,
        bio19))
    Output
      # A tibble: 10,000 x 3
         .metric                  .estimator .estimate
         <chr>                    <chr>          <dbl>
       1 local_getis_ord_g_pvalue standard      0.908 
       2 local_getis_ord_g_pvalue standard      0.431 
       3 local_getis_ord_g_pvalue standard      0.911 
       4 local_getis_ord_g_pvalue standard      0.896 
       5 local_getis_ord_g_pvalue standard      0.910 
       6 local_getis_ord_g_pvalue standard      0.0506
       7 local_getis_ord_g_pvalue standard      0.775 
       8 local_getis_ord_g_pvalue standard      0.969 
       9 local_getis_ord_g_pvalue standard      0.750 
      10 local_getis_ord_g_pvalue standard      0.995 
      # i 9,990 more rows

---

    Code
      withr::with_seed(123, ww_local_getis_ord_g_pvalue(worldclim_loaded, bio13,
        bio19))
    Output
      # A tibble: 10,000 x 3
         .metric                  .estimator .estimate
         <chr>                    <chr>          <dbl>
       1 local_getis_ord_g_pvalue standard      0.908 
       2 local_getis_ord_g_pvalue standard      0.431 
       3 local_getis_ord_g_pvalue standard      0.911 
       4 local_getis_ord_g_pvalue standard      0.896 
       5 local_getis_ord_g_pvalue standard      0.910 
       6 local_getis_ord_g_pvalue standard      0.0506
       7 local_getis_ord_g_pvalue standard      0.775 
       8 local_getis_ord_g_pvalue standard      0.969 
       9 local_getis_ord_g_pvalue standard      0.750 
      10 local_getis_ord_g_pvalue standard      0.995 
      # i 9,990 more rows
…
---

    Code
      withr::with_seed(123, ww_local_getis_ord_g_pvalue(worldclim_loaded, bio13,
        bio19))
    Output
      # A tibble: 10,000 x 3
         .metric                  .estimator .estimate
         <chr>                    <chr>          <dbl>
       1 local_getis_ord_g_pvalue standard      0.908 
       2 local_getis_ord_g_pvalue standard      0.431 
       3 local_getis_ord_g_pvalue standard      0.911 
       4 local_getis_ord_g_pvalue standard      0.896 
       5 local_getis_ord_g_pvalue standard      0.910 
       6 local_getis_ord_g_pvalue standard      0.0506
       7 local_getis_ord_g_pvalue standard      0.775 
       8 local_getis_ord_g_pvalue standard      0.969 
       9 local_getis_ord_g_pvalue standard      0.750 
      10 local_getis_ord_g_pvalue standard      0.995 
      # i 9,990 more rows

---

    Code
      withr::with_seed(123, ww_local_getis_ord_g_pvalue(worldclim_loaded, bio13,
        bio19, function(data) ww_build_weights(ww_make_point_neighbors(data, k = 5))))
    Output
      # A tibble: 10,000 x 3
         .metric                  .estimator    .estimate
         <chr>                    <chr>             <dbl>
       1 local_getis_ord_g_pvalue standard   0.760       
       2 local_getis_ord_g_pvalue standard   0.344       
       3 local_getis_ord_g_pvalue standard   0.820       
       4 local_getis_ord_g_pvalue standard   0.955       
       5 local_getis_ord_g_pvalue standard   0.811       
       6 local_getis_ord_g_pvalue standard   0.0000000922
       7 local_getis_ord_g_pvalue standard   0.000174    
       8 local_getis_ord_g_pvalue standard   0.974       
       9 local_getis_ord_g_pvalue standard   0.623       
      10 local_getis_ord_g_pvalue standard   0.920       
      # i 9,990 more rows
…
