Pivoting
…
pivot_longer() is commonly needed to tidy wild-caught
datasets as they often optimise for ease of data entry or ease of
comparison rather than ease of analysis. The following sections show how
to use pivot_longer() for a wide range of realistic
datasets.

String data in column names

The relig_income dataset stores counts based on a survey
which (among other things) asked people about their religion and annual
income:

relig_income
#> # A tibble: 18 × 11
#>    religion      `<$10k` $10-2…¹ $20-3…² $30-4…³ $40-5…⁴ $50-7…⁵ $75-1…⁶ $100-…⁷
#>    <chr>           <dbl>   <dbl>   <dbl>   <dbl>   <dbl>   <dbl>   <dbl>   <dbl>
#>  1 Agnostic           27      34      60      81      76     137     122     109
#>  2 Atheist            12      27      37      52      35      70      73      59
#>  3 Buddhist           27      21      30      34      33      58      62      39
#>  4 Catholic          418     617     732     670     638    1116     949     792
#>  5 Don’t know/r…      15      14      15      11      10      35      21      17
#>  6 Evangelical …     575     869    1064     982     881    1486     949     723
#>  7 Hindu               1       9       7       9      11      34      47      48
#>  8 Historically…     228     244     236     238     197     223     131      81
#>  9 Jehovah's Wi…      20      27      24      24      21      30      15      11
#> 10 Jewish             19      19      25      25      30      95      69      87
#> # … with 8 more rows, 2 more variables: `>150k` <dbl>,
#> #   `Don't know/refused` <dbl>, and abbreviated variable names ¹​`$10-20k`,
#> #   ²​`$20-30k`, ³​`$30-40k`, ⁴​`$40-50k`, ⁵​`$50-75k`, ⁶​`$75-100k`, ⁷​`$100-150k`
…
religion, stored in the rows,

income spread across the column names, and

count stored in the cell values.

To tidy it we use pivot_longer():

relig_income %>% 
  pivot_longer(
    cols = !religion, 
    names_to = "income", 
    values_to = "count"
  )
#> # A tibble: 180 × 3
#>    religion income             count
#>    <chr>    <chr>              <dbl>
#>  1 Agnostic <$10k                 27
#>  2 Agnostic $10-20k               34
#>  3 Agnostic $20-30k               60
#>  4 Agnostic $30-40k               81
#>  5 Agnostic $40-50k               76
#>  6 Agnostic $50-75k              137
#>  7 Agnostic $75-100k             122
#>  8 Agnostic $100-150k            109
#>  9 Agnostic >150k                 84
#> 10 Agnostic Don't know/refused    96
#> # … with 170 more rows
…
Neither the names_to nor the values_to
column exists in relig_income, so we provide them as
strings surrounded by quotes.

Numeric data in column names

The billboard dataset records the billboard rank of
songs in the year 2000. It has a form similar to the
relig_income data, but the data encoded in the column names
is really a number, not a string.

billboard
#> # A tibble: 317 × 79
#>    artist track date.ent…¹   wk1   wk2   wk3   wk4   wk5   wk6   wk7   wk8   wk9
#>    <chr>  <chr> <date>     <dbl> <dbl> <dbl> <dbl> <dbl> <dbl> <dbl> <dbl> <dbl>
#>  1 2 Pac  Baby… 2000-02-26    87    82    72    77    87    94    99    NA    NA
#>  2 2Ge+h… The … 2000-09-02    91    87    92    NA    NA    NA    NA    NA    NA
#>  3 3 Doo… Kryp… 2000-04-08    81    70    68    67    66    57    54    53    51
#>  4 3 Doo… Loser 2000-10-21    76    76    72    69    67    65    55    59    62
#>  5 504 B… Wobb… 2000-04-15    57    34    25    17    17    31    36    49    53
#>  6 98^0   Give… 2000-08-19    51    39    34    26    26    19     2     2     3
#>  7 A*Tee… Danc… 2000-07-08    97    97    96    95   100    NA    NA    NA    NA
#>  8 Aaliy… I Do… 2000-01-29    84    62    51    41    38    35    35    38    38
#>  9 Aaliy… Try … 2000-03-18    59    53    38    28    21    18    16    14    12
#> 10 Adams… Open… 2000-08-26    76    76    74    69    68    67    61    58    57
#> # … with 307 more rows, 67 more variables: wk10 <dbl>, wk11 <dbl>, wk12 <dbl>,
#> #   wk13 <dbl>, wk14 <dbl>, wk15 <dbl>, wk16 <dbl>, wk17 <dbl>, wk18 <dbl>,
#> #   wk19 <dbl>, wk20 <dbl>, wk21 <dbl>, wk22 <dbl>, wk23 <dbl>, wk24 <dbl>,
#> #   wk25 <dbl>, wk26 <dbl>, wk27 <dbl>, wk28 <dbl>, wk29 <dbl>, wk30 <dbl>,
#> #   wk31 <dbl>, wk32 <dbl>, wk33 <dbl>, wk34 <dbl>, wk35 <dbl>, wk36 <dbl>,
#> #   wk37 <dbl>, wk38 <dbl>, wk39 <dbl>, wk40 <dbl>, wk41 <dbl>, wk42 <dbl>,
#> #   wk43 <dbl>, wk44 <dbl>, wk45 <dbl>, wk46 <dbl>, wk47 <dbl>, wk48 <dbl>, …
…
billboard %>% 
  pivot_longer(
    cols = starts_with("wk"), 
    names_to = "week", 
    values_to = "rank",
    values_drop_na = TRUE
  )
#> # A tibble: 5,307 × 5
#>    artist  track                   date.entered week   rank
#>    <chr>   <chr>                   <date>       <chr> <dbl>
#>  1 2 Pac   Baby Don't Cry (Keep... 2000-02-26   wk1      87
#>  2 2 Pac   Baby Don't Cry (Keep... 2000-02-26   wk2      82
#>  3 2 Pac   Baby Don't Cry (Keep... 2000-02-26   wk3      72
#>  4 2 Pac   Baby Don't Cry (Keep... 2000-02-26   wk4      77
#>  5 2 Pac   Baby Don't Cry (Keep... 2000-02-26   wk5      87
#>  6 2 Pac   Baby Don't Cry (Keep... 2000-02-26   wk6      94
#>  7 2 Pac   Baby Don't Cry (Keep... 2000-02-26   wk7      99
#>  8 2Ge+her The Hardest Part Of ... 2000-09-02   wk1      91
#>  9 2Ge+her The Hardest Part Of ... 2000-09-02   wk2      87
#> 10 2Ge+her The Hardest Part Of ... 2000-09-02   wk3      92
#> # … with 5,297 more rows
…
Many variables in column names

A more challenging situation occurs when you have multiple variables
crammed into the column names. For example, take the who
dataset:

who
#> # A tibble: 7,240 × 60
#>    country     iso2  iso3   year new_s…¹ new_s…² new_s…³ new_s…⁴ new_s…⁵ new_s…⁶
#>    <chr>       <chr> <chr> <dbl>   <dbl>   <dbl>   <dbl>   <dbl>   <dbl>   <dbl>
#>  1 Afghanistan AF    AFG    1980      NA      NA      NA      NA      NA      NA
#>  2 Afghanistan AF    AFG    1981      NA      NA      NA      NA      NA      NA
#>  3 Afghanistan AF    AFG    1982      NA      NA      NA      NA      NA      NA
#>  4 Afghanistan AF    AFG    1983      NA      NA      NA      NA      NA      NA
#>  5 Afghanistan AF    AFG    1984      NA      NA      NA      NA      NA      NA
#>  6 Afghanistan AF    AFG    1985      NA      NA      NA      NA      NA      NA
#>  7 Afghanistan AF    AFG    1986      NA      NA      NA      NA      NA      NA
#>  8 Afghanistan AF    AFG    1987      NA      NA      NA      NA      NA      NA
#>  9 Afghanistan AF    AFG    1988      NA      NA      NA      NA      NA      NA
#> 10 Afghanistan AF    AFG    1989      NA      NA      NA      NA      NA      NA
#> # … with 7,230 more rows, 50 more variables: new_sp_m65 <dbl>,
#> #   new_sp_f014 <dbl>, new_sp_f1524 <dbl>, new_sp_f2534 <dbl>,
#> #   new_sp_f3544 <dbl>, new_sp_f4554 <dbl>, new_sp_f5564 <dbl>,
#> #   new_sp_f65 <dbl>, new_sn_m014 <dbl>, new_sn_m1524 <dbl>,
#> #   new_sn_m2534 <dbl>, new_sn_m3544 <dbl>, new_sn_m4554 <dbl>,
#> #   new_sn_m5564 <dbl>, new_sn_m65 <dbl>, new_sn_f014 <dbl>,
#> #   new_sn_f1524 <dbl>, new_sn_f2534 <dbl>, new_sn_f3544 <dbl>, …
…
who %>% 
  pivot_longer(
    cols = new_sp_m014:newrel_f65,
    names_to = c("diagnosis", "gender", "age"), 
    names_pattern = "new_?(.*)_(.)(.*)",
    values_to = "count"
  )
#> # A tibble: 405,440 × 8
#>    country     iso2  iso3   year diagnosis gender age   count
#>    <chr>       <chr> <chr> <dbl> <chr>     <chr>  <chr> <dbl>
#>  1 Afghanistan AF    AFG    1980 sp        m      014      NA
#>  2 Afghanistan AF    AFG    1980 sp        m      1524     NA
#>  3 Afghanistan AF    AFG    1980 sp        m      2534     NA
#>  4 Afghanistan AF    AFG    1980 sp        m      3544     NA
#>  5 Afghanistan AF    AFG    1980 sp        m      4554     NA
#>  6 Afghanistan AF    AFG    1980 sp        m      5564     NA
#>  7 Afghanistan AF    AFG    1980 sp        m      65       NA
#>  8 Afghanistan AF    AFG    1980 sp        f      014      NA
#>  9 Afghanistan AF    AFG    1980 sp        f      1524     NA
#> 10 Afghanistan AF    AFG    1980 sp        f      2534     NA
#> # … with 405,430 more rows
…
This dataset contains four pairs of variables (x1 and
y1, x2 and y2, etc) that underlie
Anscombe’s quartet, a collection of four datasets that have the same
summary statistics (mean, sd, correlation etc), but have quite different
data. We want to produce a dataset with columns set,
x and y.

anscombe %>% 
  pivot_longer(
    cols = everything(), 
    cols_vary = "slowest",
    names_to = c(".value", "set"), 
    names_pattern = "(.)(.)"
  )
#> # A tibble: 44 × 3
#>    set       x     y
#>    <chr> <dbl> <dbl>
#>  1 1        10  8.04
#>  2 1         8  6.95
#>  3 1        13  7.58
#>  4 1         9  8.81
#>  5 1        11  8.33
#>  6 1        14  9.96
#>  7 1         6  7.24
#>  8 1         4  4.26
#>  9 1        12 10.8 
#> 10 1         7  4.82
#> # … with 34 more rows
…
pivot_wider() is the opposite of
pivot_longer(): it makes a dataset wider
by increasing the number of columns and decreasing the number of rows.
It’s relatively rare to need pivot_wider() to make tidy
data, but it’s often useful for creating summary tables for
presentation, or data in a format needed by other tools.

Capture-recapture data

The fish_encounters dataset, contributed by Myfanwy
Johnston, describes when fish swimming down a river are detected by
automatic monitoring stations:

fish_encounters
#> # A tibble: 114 × 3
#>    fish  station  seen
#>    <fct> <fct>   <int>
#>  1 4842  Release     1
#>  2 4842  I80_1       1
#>  3 4842  Lisbon      1
#>  4 4842  Rstr        1
#>  5 4842  Base_TD     1
#>  6 4842  BCE         1
#>  7 4842  BCW         1
#>  8 4842  BCE2        1
#>  9 4842  BCW2        1
#> 10 4842  MAE         1
#> # … with 104 more rows

Many tools used to analyse this data need it in a form where each
station is a column:

fish_encounters %>% 
  pivot_wider(
    names_from = station, 
    values_from = seen
  )
#> # A tibble: 19 × 12
#>    fish  Release I80_1 Lisbon  Rstr Base_TD   BCE   BCW  BCE2  BCW2   MAE   MAW
#>    <fct>   <int> <int>  <int> <int>   <int> <int> <int> <int> <int> <int> <int>
#>  1 4842        1     1      1     1       1     1     1     1     1     1     1
#>  2 4843        1     1      1     1       1     1     1     1     1     1     1
#>  3 4844        1     1      1     1       1     1     1     1     1     1     1
#>  4 4845        1     1      1     1       1    NA    NA    NA    NA    NA    NA
#>  5 4847        1     1      1    NA      NA    NA    NA    NA    NA    NA    NA
#>  6 4848        1     1      1     1      NA    NA    NA    NA    NA    NA    NA
#>  7 4849        1     1     NA    NA      NA    NA    NA    NA    NA    NA    NA
#>  8 4850        1     1     NA     1       1     1     1    NA    NA    NA    NA
#>  9 4851        1     1     NA    NA      NA    NA    NA    NA    NA    NA    NA
#> 10 4854        1     1     NA    NA      NA    NA    NA    NA    NA    NA    NA
#> # … with 9 more rows
This dataset only records when a fish was detected by the station -
it doesn’t record when it wasn’t detected (this is common with this type
of data). That means the output data is filled with NAs.
However, in this case we know that the absence of a record means that
the fish was not seen, so we can ask
pivot_wider() to fill these missing values in with
zeros:

fish_encounters %>% 
  pivot_wider(
    names_from = station, 
    values_from = seen,
    values_fill = 0
  )
#> # A tibble: 19 × 12
#>    fish  Release I80_1 Lisbon  Rstr Base_TD   BCE   BCW  BCE2  BCW2   MAE   MAW
#>    <fct>   <int> <int>  <int> <int>   <int> <int> <int> <int> <int> <int> <int>
#>  1 4842        1     1      1     1       1     1     1     1     1     1     1
#>  2 4843        1     1      1     1       1     1     1     1     1     1     1
#>  3 4844        1     1      1     1       1     1     1     1     1     1     1
#>  4 4845        1     1      1     1       1     0     0     0     0     0     0
#>  5 4847        1     1      1     0       0     0     0     0     0     0     0
#>  6 4848        1     1      1     1       0     0     0     0     0     0     0
#>  7 4849        1     1      0     0       0     0     0     0     0     0     0
#>  8 4850        1     1      0     1       1     1     1     0     0     0     0
#>  9 4851        1     1      0     0       0     0     0     0     0     0     0
#> 10 4854        1     1      0     0       0     0     0     0     0     0     0
#> # … with 9 more rows

Aggregation

You can also use pivot_wider() to perform simple
aggregation. For example, take the warpbreaks dataset built
in to base R (converted to a tibble for the better print method):

warpbreaks <- warpbreaks %>% 
  as_tibble() %>% 
  select(wool, tension, breaks)
warpbreaks
#> # A tibble: 54 × 3
#>    wool  tension breaks
#>    <fct> <fct>    <dbl>
#>  1 A     L           26
#>  2 A     L           30
#>  3 A     L           54
#>  4 A     L           25
#>  5 A     L           70
#>  6 A     L           52
#>  7 A     L           51
#>  8 A     L           26
#>  9 A     L           67
#> 10 A     M           18
#> # … with 44 more rows
…
Imagine, as in https://stackoverflow.com/questions/24929954, that we
have information containing the combination of product, country, and
year. In tidy form it might look like this:

production <- 
  expand_grid(
    product = c("A", "B"), 
    country = c("AI", "EI"), 
    year = 2000:2014
  ) %>%
  filter((product == "A" & country == "AI") | product == "B") %>% 
  mutate(production = rnorm(nrow(.)))
production
#> # A tibble: 45 × 4
#>    product country  year production
#>    <chr>   <chr>   <int>      <dbl>
#>  1 A       AI       2000    0.225  
#>  2 A       AI       2001   -0.821  
#>  3 A       AI       2002   -2.01   
#>  4 A       AI       2003    0.259  
#>  5 A       AI       2004   -0.00412
#>  6 A       AI       2005    0.0530 
#>  7 A       AI       2006    0.689  
#>  8 A       AI       2007    0.385  
#>  9 A       AI       2008   -0.538  
#> 10 A       AI       2009    0.0187 
#> # … with 35 more rows

We want to widen the data so we have one column for each combination
of product and country. The key is to specify
multiple variables for names_from:

production %>% 
  pivot_wider(
    names_from = c(product, country), 
    values_from = production
  )
#> # A tibble: 15 × 4
#>     year     A_AI     B_AI    B_EI
#>    <int>    <dbl>    <dbl>   <dbl>
#>  1  2000  0.225    0.224    0.0440
#>  2  2001 -0.821   -0.00660  0.507 
#>  3  2002 -2.01    -0.00240 -0.926 
#>  4  2003  0.259   -0.886   -1.39  
#>  5  2004 -0.00412 -0.816    1.31  
#>  6  2005  0.0530   0.357   -0.747 
#>  7  2006  0.689   -0.422   -0.191 
#>  8  2007  0.385    0.585    0.313 
#>  9  2008 -0.538    1.53     0.739 
#> 10  2009  0.0187   1.31     1.71  
#> # … with 5 more rows

When either names_from or values_from
select multiple variables, you can control how the column names in the
output constructed with names_sep and
names_prefix, or the workhorse names_glue:

production %>% 
  pivot_wider(
    names_from = c(product, country), 
    values_from = production,
    names_sep = ".",
    names_prefix = "prod."
  )
#> # A tibble: 15 × 4
#>     year prod.A.AI prod.B.AI prod.B.EI
#>    <int>     <dbl>     <dbl>     <dbl>
#>  1  2000   0.225     0.224      0.0440
#>  2  2001  -0.821    -0.00660    0.507 
#>  3  2002  -2.01     -0.00240   -0.926 
#>  4  2003   0.259    -0.886     -1.39  
#>  5  2004  -0.00412  -0.816      1.31  
#>  6  2005   0.0530    0.357     -0.747 
#>  7  2006   0.689    -0.422     -0.191 
#>  8  2007   0.385     0.585      0.313 
#>  9  2008  -0.538     1.53       0.739 
#> 10  2009   0.0187    1.31       1.71  
#> # … with 5 more rows

production %>% 
  pivot_wider(
    names_from = c(product, country), 
    values_from = production,
    names_glue = "prod_{product}_{country}"
  )
#> # A tibble: 15 × 4
#>     year prod_A_AI prod_B_AI prod_B_EI
#>    <int>     <dbl>     <dbl>     <dbl>
#>  1  2000   0.225     0.224      0.0440
#>  2  2001  -0.821    -0.00660    0.507 
#>  3  2002  -2.01     -0.00240   -0.926 
#>  4  2003   0.259    -0.886     -1.39  
#>  5  2004  -0.00412  -0.816      1.31  
#>  6  2005   0.0530    0.357     -0.747 
#>  7  2006   0.689    -0.422     -0.191 
#>  8  2007   0.385     0.585      0.313 
#>  9  2008  -0.538     1.53       0.739 
#> 10  2009   0.0187    1.31       1.71  
#> # … with 5 more rows

Tidy census

The us_rent_income dataset contains information about
median income and rent for each state in the US for 2017 (from the
American Community Survey, retrieved with the tidycensus package).

us_rent_income
#> # A tibble: 104 × 5
#>    GEOID NAME       variable estimate   moe
#>    <chr> <chr>      <chr>       <dbl> <dbl>
#>  1 01    Alabama    income      24476   136
#>  2 01    Alabama    rent          747     3
#>  3 02    Alaska     income      32940   508
#>  4 02    Alaska     rent         1200    13
#>  5 04    Arizona    income      27517   148
#>  6 04    Arizona    rent          972     4
#>  7 05    Arkansas   income      23789   165
#>  8 05    Arkansas   rent          709     5
#>  9 06    California income      29454   109
#> 10 06    California rent         1358     3
#> # … with 94 more rows

Here both estimate and moe are values
columns, so we can supply them to values_from:

us_rent_income %>% 
  pivot_wider(
    names_from = variable, 
    values_from = c(estimate, moe)
  )
#> # A tibble: 52 × 6
#>    GEOID NAME                 estimate_income estimate_rent moe_income moe_rent
#>    <chr> <chr>                          <dbl>         <dbl>      <dbl>    <dbl>
#>  1 01    Alabama                        24476           747        136        3
#>  2 02    Alaska                         32940          1200        508       13
#>  3 04    Arizona                        27517           972        148        4
#>  4 05    Arkansas                       23789           709        165        5
#>  5 06    California                     29454          1358        109        3
#>  6 08    Colorado                       32401          1125        109        5
#>  7 09    Connecticut                    35326          1123        195        5
#>  8 10    Delaware                       31560          1076        247       10
#>  9 11    District of Columbia           43198          1424        681       17
#> 10 12    Florida                        25952          1077         70        3
#> # … with 42 more rows
…
