Rectangling
…
This time the elements of repos are a list of
repositories that belong to that user. These are observations, so should
become new rows, so we use unnest_longer() rather than
unnest_wider():

repos <- repos %>% unnest_longer(repo)
repos
#> # A tibble: 176 × 1
#>   repo             
#>   <list>           
#> 1 <named list [68]>
#> 2 <named list [68]>
#> 3 <named list [68]>
#> 4 <named list [68]>
#> 5 <named list [68]>
#> 6 <named list [68]>
#> # … with 170 more rows

Then we can use unnest_wider() or
hoist():

repos %>% hoist(repo, 
  login = c("owner", "login"), 
  name = "name",
  homepage = "homepage",
  watchers = "watchers_count"
)
#> # A tibble: 176 × 5
#>   login       name        homepage watchers repo             
#>   <chr>       <chr>       <chr>       <int> <list>           
#> 1 gaborcsardi after       <NA>            5 <named list [65]>
#> 2 gaborcsardi argufy      <NA>           19 <named list [65]>
#> 3 gaborcsardi ask         <NA>            5 <named list [65]>
#> 4 gaborcsardi baseimports <NA>            0 <named list [65]>
#> 5 gaborcsardi citest      <NA>            0 <named list [65]>
#> 6 gaborcsardi clisymbols  ""             18 <named list [65]>
#> # … with 170 more rows

Note the use of c("owner", "login"): this allows us to
reach two levels deep inside of a list. An alternative approach would be
to pull out just owner and then put each element of it in a
column:

repos %>% 
  hoist(repo, owner = "owner") %>% 
  unnest_wider(owner)
#> # A tibble: 176 × 18
#>   login         id avata…¹ grava…² url   html_…³ follo…⁴ follo…⁵ gists…⁶ starr…⁷
#>   <chr>      <int> <chr>   <chr>   <chr> <chr>   <chr>   <chr>   <chr>   <chr>  
#> 1 gaborcsa… 660288 https:… ""      http… https:… https:… https:… https:… https:…
#> 2 gaborcsa… 660288 https:… ""      http… https:… https:… https:… https:… https:…
#> 3 gaborcsa… 660288 https:… ""      http… https:… https:… https:… https:… https:…
#> 4 gaborcsa… 660288 https:… ""      http… https:… https:… https:… https:… https:…
#> 5 gaborcsa… 660288 https:… ""      http… https:… https:… https:… https:… https:…
#> 6 gaborcsa… 660288 https:… ""      http… https:… https:… https:… https:… https:…
#> # … with 170 more rows, 8 more variables: subscriptions_url <chr>,
#> #   organizations_url <chr>, repos_url <chr>, events_url <chr>,
#> #   received_events_url <chr>, type <chr>, site_admin <lgl>, repo <list>, and
#> #   abbreviated variable names ¹​avatar_url, ²​gravatar_id, ³​html_url,
#> #   ⁴​followers_url, ⁵​following_url, ⁶​gists_url, ⁷​starred_url

Game of Thrones characters

got_chars has a similar structure to
gh_users: it’s a list of named lists, where each element of
the inner list describes some attribute of a GoT character. We start in
the same way, first by creating a data frame and then by unnesting each
component into a column:

chars <- tibble(char = got_chars)
chars
#> # A tibble: 30 × 1
#>   char             
#>   <list>           
#> 1 <named list [18]>
#> 2 <named list [18]>
#> 3 <named list [18]>
#> 4 <named list [18]>
#> 5 <named list [18]>
#> 6 <named list [18]>
#> # … with 24 more rows

chars2 <- chars %>% unnest_wider(char)
chars2
#> # A tibble: 30 × 18
#>   url            id name  gender culture born  died  alive titles aliases father
#>   <chr>       <int> <chr> <chr>  <chr>   <chr> <chr> <lgl> <list> <list>  <chr> 
#> 1 https://ww…  1022 Theo… Male   "Ironb… "In … ""    TRUE  <chr>  <chr>   ""    
#> 2 https://ww…  1052 Tyri… Male   ""      "In … ""    TRUE  <chr>  <chr>   ""    
#> 3 https://ww…  1074 Vict… Male   "Ironb… "In … ""    TRUE  <chr>  <chr>   ""    
#> 4 https://ww…  1109 Will  Male   ""      ""    "In … FALSE <chr>  <chr>   ""    
#> 5 https://ww…  1166 Areo… Male   "Norvo… "In … ""    TRUE  <chr>  <chr>   ""    
#> 6 https://ww…  1267 Chett Male   ""      "At … "In … FALSE <chr>  <chr>   ""    
#> # … with 24 more rows, and 7 more variables: mother <chr>, spouse <chr>,
#> #   allegiances <list>, books <list>, povBooks <list>, tvSeries <list>,
#> #   playedBy <list>

This is more complex than gh_users because some
component of char are themselves a list, giving us a
collection of list-columns:

chars2 %>% select_if(is.list)
#> # A tibble: 30 × 7
#>   titles    aliases    allegiances books     povBooks  tvSeries  playedBy 
#>   <list>    <list>     <list>      <list>    <list>    <list>    <list>   
#> 1 <chr [2]> <chr [4]>  <chr [1]>   <chr [3]> <chr [2]> <chr [6]> <chr [1]>
#> 2 <chr [2]> <chr [11]> <chr [1]>   <chr [2]> <chr [4]> <chr [6]> <chr [1]>
#> 3 <chr [2]> <chr [1]>  <chr [1]>   <chr [3]> <chr [2]> <chr [1]> <chr [1]>
#> 4 <chr [1]> <chr [1]>  <NULL>      <chr [1]> <chr [1]> <chr [1]> <chr [1]>
#> 5 <chr [1]> <chr [1]>  <chr [1]>   <chr [3]> <chr [2]> <chr [2]> <chr [1]>
#> 6 <chr [1]> <chr [1]>  <NULL>      <chr [2]> <chr [1]> <chr [1]> <chr [1]>
#> # … with 24 more rows

What you do next will depend on the purposes of the analysis. Maybe
you want a row for every book and TV series that the character appears
in:

chars2 %>% 
  select(name, books, tvSeries) %>% 
  pivot_longer(c(books, tvSeries), names_to = "media", values_to = "value") %>% 
  unnest_longer(value)
#> # A tibble: 179 × 3
#>   name          media    value            
#>   <chr>         <chr>    <chr>            
#> 1 Theon Greyjoy books    A Game of Thrones
#> 2 Theon Greyjoy books    A Storm of Swords
#> 3 Theon Greyjoy books    A Feast for Crows
#> 4 Theon Greyjoy tvSeries Season 1         
#> 5 Theon Greyjoy tvSeries Season 2         
#> 6 Theon Greyjoy tvSeries Season 3         
#> # … with 173 more rows

Or maybe you want to build a table that lets you match title to
name:

chars2 %>% 
  select(name, title = titles) %>% 
  unnest_longer(title)
#> # A tibble: 59 × 2
#>   name              title                                               
#>   <chr>             <chr>                                               
#> 1 Theon Greyjoy     Prince of Winterfell                                
#> 2 Theon Greyjoy     Lord of the Iron Islands (by law of the green lands)
#> 3 Tyrion Lannister  Acting Hand of the King (former)                    
#> 4 Tyrion Lannister  Master of Coin (former)                             
#> 5 Victarion Greyjoy Lord Captain of the Iron Fleet                      
#> 6 Victarion Greyjoy Master of the Iron Victory                          
#> # … with 53 more rows
…
Notice that results is a list of lists. Most of the
cities have 1 element (representing a unique match from the geocoding
API), but Washington and Arlington have two. We can pull these out into
separate rows with unnest_longer():

repurrrsive::gmaps_cities %>%
  unnest_wider(json) %>% 
  unnest_longer(results)
#> # A tibble: 7 × 3
#>   city       results          status
#>   <chr>      <list>           <chr> 
#> 1 Houston    <named list [5]> OK    
#> 2 Washington <named list [5]> OK    
#> 3 Washington <named list [5]> OK    
#> 4 New York   <named list [5]> OK    
#> 5 Chicago    <named list [5]> OK    
#> 6 Arlington  <named list [5]> OK    
#> # … with 1 more row

Now these all have the same components, as revealed by
unnest_wider():

repurrrsive::gmaps_cities %>%
  unnest_wider(json) %>% 
  unnest_longer(results) %>% 
  unnest_wider(results)
#> # A tibble: 7 × 7
#>   city       address_components formatted_a…¹ geometry     place…² types  status
#>   <chr>      <list>             <chr>         <list>       <chr>   <list> <chr> 
#> 1 Houston    <list [4]>         Houston, TX,… <named list> ChIJAY… <list> OK    
#> 2 Washington <list [2]>         Washington, … <named list> ChIJ-b… <list> OK    
#> 3 Washington <list [4]>         Washington, … <named list> ChIJW-… <list> OK    
#> 4 New York   <list [3]>         New York, NY… <named list> ChIJOw… <list> OK    
#> 5 Chicago    <list [4]>         Chicago, IL,… <named list> ChIJ7c… <list> OK    
#> 6 Arlington  <list [4]>         Arlington, T… <named list> ChIJ05… <list> OK    
#> # … with 1 more row, and abbreviated variable names ¹​formatted_address,
#> #   ²​place_id

We can find the latitude and longitude by unnesting
geometry:

repurrrsive::gmaps_cities %>%
  unnest_wider(json) %>% 
  unnest_longer(results) %>% 
  unnest_wider(results) %>% 
  unnest_wider(geometry)
#> # A tibble: 7 × 10
#>   city    addre…¹ forma…² bounds       location     locat…³ viewport     place…⁴
#>   <chr>   <list>  <chr>   <list>       <list>       <chr>   <list>       <chr>  
#> 1 Houston <list>  Housto… <named list> <named list> APPROX… <named list> ChIJAY…
#> 2 Washin… <list>  Washin… <named list> <named list> APPROX… <named list> ChIJ-b…
#> 3 Washin… <list>  Washin… <named list> <named list> APPROX… <named list> ChIJW-…
#> 4 New Yo… <list>  New Yo… <named list> <named list> APPROX… <named list> ChIJOw…
#> 5 Chicago <list>  Chicag… <named list> <named list> APPROX… <named list> ChIJ7c…
#> 6 Arling… <list>  Arling… <named list> <named list> APPROX… <named list> ChIJ05…
#> # … with 1 more row, 2 more variables: types <list>, status <chr>, and
#> #   abbreviated variable names ¹​address_components, ²​formatted_address,
#> #   ³​location_type, ⁴​place_id

And then location:

repurrrsive::gmaps_cities %>%
  unnest_wider(json) %>%
  unnest_longer(results) %>%
  unnest_wider(results) %>%
  unnest_wider(geometry) %>%
  unnest_wider(location)
#> # A tibble: 7 × 11
#>   city    addre…¹ forma…² bounds         lat    lng locat…³ viewport     place…⁴
#>   <chr>   <list>  <chr>   <list>       <dbl>  <dbl> <chr>   <list>       <chr>  
#> 1 Houston <list>  Housto… <named list>  29.8  -95.4 APPROX… <named list> ChIJAY…
#> 2 Washin… <list>  Washin… <named list>  47.8 -121.  APPROX… <named list> ChIJ-b…
#> 3 Washin… <list>  Washin… <named list>  38.9  -77.0 APPROX… <named list> ChIJW-…
#> 4 New Yo… <list>  New Yo… <named list>  40.7  -74.0 APPROX… <named list> ChIJOw…
#> 5 Chicago <list>  Chicag… <named list>  41.9  -87.6 APPROX… <named list> ChIJ7c…
#> 6 Arling… <list>  Arling… <named list>  32.7  -97.1 APPROX… <named list> ChIJ05…
#> # … with 1 more row, 2 more variables: types <list>, status <chr>, and
#> #   abbreviated variable names ¹​address_components, ²​formatted_address,
#> #   ³​location_type, ⁴​place_id
…
Sharla Gelfand’s discography

We’ll finish off with the most complex list, from Sharla Gelfand’s
discography. We’ll start the usual way: putting the list into a single
column data frame, and then widening so each component is a column. I
also parse the date_added column into a real date-time1.

discs <- tibble(disc = discog) %>% 
  unnest_wider(disc) %>% 
  mutate(date_added = as.POSIXct(strptime(date_added, "%Y-%m-%dT%H:%M:%S"))) 
discs
#> # A tibble: 155 × 5
#>   instance_id date_added          basic_information       id rating
#>         <int> <dttm>              <list>               <int>  <int>
#> 1   354823933 2019-02-16 17:48:59 <named list [11]>  7496378      0
#> 2   354092601 2019-02-13 14:13:11 <named list [11]>  4490852      0
#> 3   354091476 2019-02-13 14:07:23 <named list [11]>  9827276      0
#> 4   351244906 2019-02-02 11:39:58 <named list [11]>  9769203      0
#> 5   351244801 2019-02-02 11:39:37 <named list [11]>  7237138      0
#> 6   351052065 2019-02-01 20:40:53 <named list [11]> 13117042      0
#> # … with 149 more rows
…
Unfortunately that fails because there’s an id column
inside basic_information. We can quickly see what’s going
on by setting names_repair = "unique":

discs %>% unnest_wider(basic_information, names_repair = "unique")
#> New names:
#> • `id` -> `id...7`
#> • `id` -> `id...14`
#> # A tibble: 155 × 15
#>   instance…¹ date_added          labels  year maste…² artists id...7 thumb title
#>        <int> <dttm>              <list> <int> <chr>   <list>   <int> <chr> <chr>
#> 1  354823933 2019-02-16 17:48:59 <list>  2015 <NA>    <list>  7.50e6 http… Demo 
#> 2  354092601 2019-02-13 14:13:11 <list>  2013 https:… <list>  4.49e6 http… Obse…
#> 3  354091476 2019-02-13 14:07:23 <list>  2017 https:… <list>  9.83e6 http… I    
#> 4  351244906 2019-02-02 11:39:58 <list>  2017 https:… <list>  9.77e6 http… Oído…
#> 5  351244801 2019-02-02 11:39:37 <list>  2015 https:… <list>  7.24e6 http… A Ca…
#> 6  351052065 2019-02-01 20:40:53 <list>  2019 https:… <list>  1.31e7 http… Tash…
#> # … with 149 more rows, 6 more variables: formats <list>, cover_image <chr>,
#> #   resource_url <chr>, master_id <int>, id...14 <int>, rating <int>, and
#> #   abbreviated variable names ¹​instance_id, ²​master_url

The problem is that basic_information repeats the
id column that’s also stored at the top-level, so we can
just drop that:

discs %>% 
  select(!id) %>% 
  unnest_wider(basic_information)
#> # A tibble: 155 × 14
#>   instance…¹ date_added          labels  year maste…² artists     id thumb title
#>        <int> <dttm>              <list> <int> <chr>   <list>   <int> <chr> <chr>
#> 1  354823933 2019-02-16 17:48:59 <list>  2015 <NA>    <list>  7.50e6 http… Demo 
#> 2  354092601 2019-02-13 14:13:11 <list>  2013 https:… <list>  4.49e6 http… Obse…
#> 3  354091476 2019-02-13 14:07:23 <list>  2017 https:… <list>  9.83e6 http… I    
#> 4  351244906 2019-02-02 11:39:58 <list>  2017 https:… <list>  9.77e6 http… Oído…
#> 5  351244801 2019-02-02 11:39:37 <list>  2015 https:… <list>  7.24e6 http… A Ca…
#> 6  351052065 2019-02-01 20:40:53 <list>  2019 https:… <list>  1.31e7 http… Tash…
#> # … with 149 more rows, 5 more variables: formats <list>, cover_image <chr>,
#> #   resource_url <chr>, master_id <int>, rating <int>, and abbreviated variable
#> #   names ¹​instance_id, ²​master_url

Alternatively, we could use hoist():

discs %>% 
  hoist(basic_information,
    title = "title",
    year = "year",
    label = list("labels", 1, "name"),
    artist = list("artists", 1, "name")
  )
#> # A tibble: 155 × 9
#>   instance_id date_added          title    year label artist basic_info…¹     id
#>         <int> <dttm>              <chr>   <int> <chr> <chr>  <list>        <int>
#> 1   354823933 2019-02-16 17:48:59 Demo     2015 Tobi… Mollot <named list> 7.50e6
#> 2   354092601 2019-02-13 14:13:11 Observ…  2013 La V… Una B… <named list> 4.49e6
#> 3   354091476 2019-02-13 14:07:23 I        2017 La V… S.H.I… <named list> 9.83e6
#> 4   351244906 2019-02-02 11:39:58 Oído A…  2017 La V… Rata … <named list> 9.77e6
#> 5   351244801 2019-02-02 11:39:37 A Cat'…  2015 Kato… Ivy (… <named list> 7.24e6
#> 6   351052065 2019-02-01 20:40:53 Tashme   2019 High… Tashme <named list> 1.31e7
#> # … with 149 more rows, 1 more variable: rating <int>, and abbreviated variable
#> #   name ¹​basic_information

Here I quickly extract the name of the first label and artist by
indexing deeply into the nested list.

A more systematic approach would be to create separate tables for
artist and label:

discs %>% 
  hoist(basic_information, artist = "artists") %>% 
  select(disc_id = id, artist) %>% 
  unnest_longer(artist) %>% 
  unnest_wider(artist)
#> # A tibble: 167 × 8
#>    disc_id join  name                     anv   tracks role  resource_url     id
#>      <int> <chr> <chr>                    <chr> <chr>  <chr> <chr>         <int>
#> 1  7496378 ""    Mollot                   ""    ""     ""    https://api… 4.62e6
#> 2  4490852 ""    Una Bèstia Incontrolable ""    ""     ""    https://api… 3.19e6
#> 3  9827276 ""    S.H.I.T. (3)             ""    ""     ""    https://api… 2.77e6
#> 4  9769203 ""    Rata Negra               ""    ""     ""    https://api… 4.28e6
#> 5  7237138 ""    Ivy (18)                 ""    ""     ""    https://api… 3.60e6
#> 6 13117042 ""    Tashme                   ""    ""     ""    https://api… 5.21e6
#> # … with 161 more rows

discs %>% 
  hoist(basic_information, format = "formats") %>% 
  select(disc_id = id, format) %>% 
  unnest_longer(format) %>% 
  unnest_wider(format) %>% 
  unnest_longer(descriptions)
#> # A tibble: 258 × 5
#>   disc_id descriptions text  name     qty  
#>     <int> <chr>        <chr> <chr>    <chr>
#> 1 7496378 "Numbered"   Black Cassette 1    
#> 2 4490852 "LP"         <NA>  Vinyl    1    
#> 3 9827276 "7\""        <NA>  Vinyl    1    
#> 4 9827276 "45 RPM"     <NA>  Vinyl    1    
#> 5 9827276 "EP"         <NA>  Vinyl    1    
#> 6 9769203 "LP"         <NA>  Vinyl    1    
#> # … with 252 more rows
…
