Variable importance plots: an introduction to vip • vip
…
Example usage

For illustration, we use one of the regression problems described in Friedman (1991) and Breiman (1996). These data are available in the mlbench package. The inputs consist of 10 independent variables uniformly distributed on the interval \(\left[0, 1\right]\); however, only 5 out of these 10 are actually used in the true model. Outputs are created according to the formula described in ?mlbench::mlbench.friedman1. The code chunk below simulates 500 observations from the model default standard deviation.

# Simulate training data
set.seed(101)  # for reproducibility
trn <- as.data.frame(mlbench::mlbench.friedman1(500))  # ?mlbench.friedman1

# Inspect data
tibble::as.tibble(trn)
#> # A tibble: 500 x 11
#>       x.1   x.2   x.3   x.4    x.5     x.6   x.7   x.8   x.9  x.10     y
#>     <dbl> <dbl> <dbl> <dbl>  <dbl>   <dbl> <dbl> <dbl> <dbl> <dbl> <dbl>
#>  1 0.372  0.406 0.102 0.322 0.693  0.758   0.518 0.530 0.878 0.763 14.9 
#>  2 0.0438 0.602 0.602 0.999 0.776  0.533   0.509 0.487 0.118 0.176 15.3 
#>  3 0.710  0.362 0.254 0.548 0.0180 0.765   0.715 0.844 0.334 0.118 15.1 
#>  4 0.658  0.291 0.542 0.327 0.230  0.301   0.177 0.346 0.474 0.283 10.7 
#>  5 0.250  0.794 0.383 0.947 0.462  0.00487 0.270 0.114 0.489 0.311 17.6 
#>  6 0.300  0.701 0.992 0.386 0.666  0.198   0.924 0.775 0.736 0.974 18.3 
#>  7 0.585  0.365 0.283 0.488 0.845  0.466   0.715 0.202 0.905 0.640 14.6 
#>  8 0.333  0.552 0.858 0.509 0.697  0.388   0.260 0.355 0.517 0.165 17.0 
#>  9 0.622  0.118 0.490 0.390 0.468  0.360   0.572 0.891 0.682 0.717  8.54
#> 10 0.546  0.150 0.476 0.706 0.829  0.373   0.192 0.873 0.456 0.694 15.0 
#> # ... with 490 more rows
…
Linear models

In multiple linear regression, or linear models (LMs), the absolute value of the \(t\)-statistic is commonly used as a measure of VI. The same idea also extends to generalized linear models (GLMs). In the code chunk below, we fit an LM to the simulated trn data set allowing for all main and two-way interaction effects, then use the step() function to perform backward elimination.

# Fit a LM
linmod <- lm(y ~ .^2, data = trn)
backward <- step(linmod, direction = "backward", trace = 0)

# Extract VI scores
vi(backward)
#> # A tibble: 21 x 3
#>    Variable Importance Sign 
#>    <chr>         <dbl> <chr>
#>  1 x.4           14.2  POS  
#>  2 x.2            7.31 POS  
#>  3 x.1            5.63 POS  
#>  4 x.5            5.21 POS  
#>  5 x.3:x.5        2.46 POS  
#>  6 x.1:x.10       2.41 NEG  
#>  7 x.2:x.6        2.41 NEG  
#>  8 x.1:x.5        2.37 NEG  
#>  9 x.10           2.21 POS  
#> 10 x.3:x.4        2.01 NEG  
#> # ... with 11 more rows
…
