…
---

    Code
      predict(ww_area_of_applicability(y ~ ., train, test, importance, na_rm = TRUE),
      test)
    Output
      # A tibble: 300 x 2
              di aoa  
           <dbl> <lgl>
       1 NA      NA   
       2  0.191  TRUE 
       3  0.190  TRUE 
       4  0.0802 TRUE 
       5  0.141  TRUE 
       6  0.288  TRUE 
       7  0.178  TRUE 
       8  0.205  TRUE 
       9  0.134  TRUE 
      10  0.177  TRUE 
      # i 290 more rows
…
---

    Code
      ww_area_of_applicability(y ~ ., train[1:10], test[1:10], importance)
    Condition
      Error in `ww_area_of_applicability()`:
      ! All variables with an importance value in `importance` must be included as predictors.

# normal use

    Code
      predict(aoa, test)
    Output
      # A tibble: 300 x 2
             di aoa  
          <dbl> <lgl>
       1 0.175  TRUE 
       2 0.191  TRUE 
       3 0.190  TRUE 
       4 0.0802 TRUE 
       5 0.141  TRUE 
       6 0.287  TRUE 
       7 0.178  TRUE 
       8 0.205  TRUE 
       9 0.134  TRUE 
      10 0.177  TRUE 
      # i 290 more rows

---

    Code
      predict(aoa, train)
    Output
      # A tibble: 700 x 2
            di aoa  
         <dbl> <lgl>
       1     0 TRUE 
       2     0 TRUE 
       3     0 TRUE 
       4     0 TRUE 
       5     0 TRUE 
       6     0 TRUE 
       7     0 TRUE 
       8     0 TRUE 
       9     0 TRUE 
      10     0 TRUE 
      # i 690 more rows
…
