# Local Getis-Ord statistics are stable

    Code
      df_local_i <- ww_local_getis_ord_g(guerry_modeled, Crm_prs, predictions)
      df_local_i[1:3]
    Output
      # A tibble: 85 x 3
         .metric           .estimator .estimate
         <chr>             <chr>          <dbl>
       1 local_getis_ord_g standard       0.913
       2 local_getis_ord_g standard       2.49 
       3 local_getis_ord_g standard       2.15 
       4 local_getis_ord_g standard      -1.58 
       5 local_getis_ord_g standard      -1.19 
       6 local_getis_ord_g standard      -1.68 
       7 local_getis_ord_g standard       0.627
       8 local_getis_ord_g standard      -1.60 
       9 local_getis_ord_g standard       0.964
      10 local_getis_ord_g standard      -2.71 
      # i 75 more rows

---

    Code
      df_local_i_p <- ww_local_getis_ord_g_pvalue(guerry_modeled, Crm_prs,
        predictions)
      df_local_i_p[1:3]
    Output
      # A tibble: 85 x 3
         .metric                  .estimator .estimate
         <chr>                    <chr>          <dbl>
       1 local_getis_ord_g_pvalue standard     0.339  
       2 local_getis_ord_g_pvalue standard     0.0175 
       3 local_getis_ord_g_pvalue standard     0.0470 
       4 local_getis_ord_g_pvalue standard     0.136  
       5 local_getis_ord_g_pvalue standard     0.253  
       6 local_getis_ord_g_pvalue standard     0.0943 
       7 local_getis_ord_g_pvalue standard     0.541  
       8 local_getis_ord_g_pvalue standard     0.132  
       9 local_getis_ord_g_pvalue standard     0.361  
      10 local_getis_ord_g_pvalue standard     0.00787
      # i 75 more rows
…
---

    Code
      df_local_i <- ww_local_getis_ord_g(guerry_modeled, Crm_prs, predictions,
        weights)
      df_local_i[1:3]
    Output
      # A tibble: 85 x 3
         .metric               .estimator .estimate
         <chr>                 <chr>          <dbl>
       1 local_getis_ord_gstar standard       1.35 
       2 local_getis_ord_gstar standard       2.64 
       3 local_getis_ord_gstar standard       2.33 
       4 local_getis_ord_gstar standard      -1.84 
       5 local_getis_ord_gstar standard      -1.19 
       6 local_getis_ord_gstar standard      -2.06 
       7 local_getis_ord_gstar standard       1.58 
       8 local_getis_ord_gstar standard      -2.32 
       9 local_getis_ord_gstar standard       0.880
      10 local_getis_ord_gstar standard      -2.74 
      # i 75 more rows

---

    Code
      df_local_i_p <- ww_local_getis_ord_g_pvalue(guerry_modeled, Crm_prs,
        predictions, weights)
      df_local_i_p[1:3]
    Output
      # A tibble: 85 x 3
         .metric                      .estimator .estimate
         <chr>                        <chr>          <dbl>
       1 local_getis_ord_gstar_pvalue standard     0.353  
       2 local_getis_ord_gstar_pvalue standard     0.0153 
       3 local_getis_ord_gstar_pvalue standard     0.0447 
       4 local_getis_ord_gstar_pvalue standard     0.124  
       5 local_getis_ord_gstar_pvalue standard     0.257  
       6 local_getis_ord_gstar_pvalue standard     0.104  
       7 local_getis_ord_gstar_pvalue standard     0.579  
       8 local_getis_ord_gstar_pvalue standard     0.100  
       9 local_getis_ord_gstar_pvalue standard     0.324  
      10 local_getis_ord_gstar_pvalue standard     0.00724
      # i 75 more rows
…
