# Local Moran statistics are stable

    Code
      df_local_i <- ww_local_moran_i(guerry_modeled, Crm_prs, predictions)
      df_local_i[1:3]
    Output
      # A tibble: 85 x 3
         .metric       .estimator .estimate
         <chr>         <chr>          <dbl>
       1 local_moran_i standard      0.530 
       2 local_moran_i standard      0.858 
       3 local_moran_i standard      0.759 
       4 local_moran_i standard      0.732 
       5 local_moran_i standard      0.207 
       6 local_moran_i standard      0.860 
       7 local_moran_i standard      0.692 
       8 local_moran_i standard      1.69  
       9 local_moran_i standard     -0.0109
      10 local_moran_i standard      0.710 
      # i 75 more rows

---

    Code
      df_local_i_p <- ww_local_moran_pvalue(guerry_modeled, Crm_prs, predictions)
      df_local_i_p[1:3]
    Output
      # A tibble: 85 x 3
         .metric            .estimator .estimate
         <chr>              <chr>          <dbl>
       1 local_moran_pvalue standard     0.361  
       2 local_moran_pvalue standard     0.0127 
       3 local_moran_pvalue standard     0.0318 
       4 local_moran_pvalue standard     0.115  
       5 local_moran_pvalue standard     0.234  
       6 local_moran_pvalue standard     0.0935 
       7 local_moran_pvalue standard     0.531  
       8 local_moran_pvalue standard     0.109  
       9 local_moran_pvalue standard     0.335  
      10 local_moran_pvalue standard     0.00663
      # i 75 more rows
…
