# Local geary statistics are stable

    Code
      df_local_c <- ww_local_geary_c(guerry_modeled, Crm_prs, predictions)
      df_local_c[1:3]
    Output
      # A tibble: 85 x 3
         .metric       .estimator .estimate
         <chr>         <chr>          <dbl>
       1 local_geary_c standard       0.981
       2 local_geary_c standard       0.836
       3 local_geary_c standard       0.707
       4 local_geary_c standard       0.108
       5 local_geary_c standard       0.264
       6 local_geary_c standard       1.36 
       7 local_geary_c standard       3.64 
       8 local_geary_c standard       1.57 
       9 local_geary_c standard       0.867
      10 local_geary_c standard       0.737
      # i 75 more rows

---

    Code
      df_local_c_p <- ww_local_geary_pvalue(guerry_modeled, Crm_prs, predictions)
      df_local_c_p[1:3]
    Output
      # A tibble: 85 x 3
         .metric            .estimator .estimate
         <chr>              <chr>          <dbl>
       1 local_geary_pvalue standard       0.202
       2 local_geary_pvalue standard       0.255
       3 local_geary_pvalue standard       0.164
       4 local_geary_pvalue standard       0.141
       5 local_geary_pvalue standard       0.277
       6 local_geary_pvalue standard       0.138
       7 local_geary_pvalue standard       0.422
       8 local_geary_pvalue standard       0.208
       9 local_geary_pvalue standard       0.802
      10 local_geary_pvalue standard       0.412
      # i 75 more rows
…
