…
---

    Code
      ww_local_geary_c(worldclim_simulation, response, response)
    Output
      # A tibble: 10,000 x 3
         .metric       .estimator .estimate
         <chr>         <chr>          <dbl>
       1 local_geary_c standard         NaN
       2 local_geary_c standard         NaN
       3 local_geary_c standard         NaN
       4 local_geary_c standard         NaN
       5 local_geary_c standard         NaN
       6 local_geary_c standard         NaN
       7 local_geary_c standard         NaN
       8 local_geary_c standard         NaN
       9 local_geary_c standard         NaN
      10 local_geary_c standard         NaN
      # i 9,990 more rows

# other generic srr standards

    Code
      withr::with_seed(123, ww_local_geary_c(worldclim_loaded, bio13, bio19))
    Output
      # A tibble: 10,000 x 3
         .metric       .estimator  .estimate
         <chr>         <chr>           <dbl>
       1 local_geary_c standard    0.000282 
       2 local_geary_c standard    0.0814   
       3 local_geary_c standard    0.00113  
       4 local_geary_c standard    0.0000313
       5 local_geary_c standard    0.000501 
       6 local_geary_c standard    0        
       7 local_geary_c standard   30.6      
       8 local_geary_c standard    0.000282 
       9 local_geary_c standard    0.00704  
      10 local_geary_c standard    0.00451  
      # i 9,990 more rows

---

    Code
      withr::with_seed(123, ww_local_geary_c(worldclim_loaded, bio13, bio19))
    Output
      # A tibble: 10,000 x 3
         .metric       .estimator  .estimate
         <chr>         <chr>           <dbl>
       1 local_geary_c standard    0.000282 
       2 local_geary_c standard    0.0814   
       3 local_geary_c standard    0.00113  
       4 local_geary_c standard    0.0000313
       5 local_geary_c standard    0.000501 
       6 local_geary_c standard    0        
       7 local_geary_c standard   30.6      
       8 local_geary_c standard    0.000282 
       9 local_geary_c standard    0.00704  
      10 local_geary_c standard    0.00451  
      # i 9,990 more rows
…
---

    Code
      withr::with_seed(123, ww_local_geary_c(worldclim_loaded, bio13, bio19))
    Output
      # A tibble: 10,000 x 3
         .metric       .estimator  .estimate
         <chr>         <chr>           <dbl>
       1 local_geary_c standard    0.000282 
       2 local_geary_c standard    0.0814   
       3 local_geary_c standard    0.00113  
       4 local_geary_c standard    0.0000313
       5 local_geary_c standard    0.000501 
       6 local_geary_c standard    0        
       7 local_geary_c standard   30.6      
       8 local_geary_c standard    0.000282 
       9 local_geary_c standard    0.00704  
      10 local_geary_c standard    0.00451  
      # i 9,990 more rows

---

    Code
      withr::with_seed(123, ww_local_geary_c(worldclim_loaded, bio13, bio19, function(
        data) ww_build_weights(ww_make_point_neighbors(data, k = 5))))
    Output
      # A tibble: 10,000 x 3
         .metric       .estimator .estimate
         <chr>         <chr>          <dbl>
       1 local_geary_c standard    0.000219
       2 local_geary_c standard    0.0373  
       3 local_geary_c standard    0.00211 
       4 local_geary_c standard    0.00282 
       5 local_geary_c standard    0.00101 
       6 local_geary_c standard    0.180   
       7 local_geary_c standard   85.2     
       8 local_geary_c standard    0.000939
       9 local_geary_c standard    0.00201 
      10 local_geary_c standard    0.0195  
      # i 9,990 more rows
…
