…
---

    Code
      ww_local_moran_i(worldclim_simulation, response, response)
    Output
      # A tibble: 10,000 x 3
         .metric       .estimator .estimate
         <chr>         <chr>          <dbl>
       1 local_moran_i standard         NaN
       2 local_moran_i standard         NaN
       3 local_moran_i standard         NaN
       4 local_moran_i standard         NaN
       5 local_moran_i standard         NaN
       6 local_moran_i standard         NaN
       7 local_moran_i standard         NaN
       8 local_moran_i standard         NaN
       9 local_moran_i standard         NaN
      10 local_moran_i standard         NaN
      # i 9,990 more rows

# other generic srr standards

    Code
      withr::with_seed(123, ww_local_moran_i(worldclim_loaded, bio13, bio19))
    Output
      # A tibble: 10,000 x 3
         .metric       .estimator .estimate
         <chr>         <chr>          <dbl>
       1 local_moran_i standard    0.0167  
       2 local_moran_i standard    0.409   
       3 local_moran_i standard    0.00614 
       4 local_moran_i standard    0.00542 
       5 local_moran_i standard    0.0120  
       6 local_moran_i standard    4.87    
       7 local_moran_i standard    1.79    
       8 local_moran_i standard    0.000766
       9 local_moran_i standard    0.0513  
      10 local_moran_i standard   -0.000120
      # i 9,990 more rows

---

    Code
      withr::with_seed(123, ww_local_moran_i(worldclim_loaded, bio13, bio19))
    Output
      # A tibble: 10,000 x 3
         .metric       .estimator .estimate
         <chr>         <chr>          <dbl>
       1 local_moran_i standard    0.0167  
       2 local_moran_i standard    0.409   
       3 local_moran_i standard    0.00614 
       4 local_moran_i standard    0.00542 
       5 local_moran_i standard    0.0120  
       6 local_moran_i standard    4.87    
       7 local_moran_i standard    1.79    
       8 local_moran_i standard    0.000766
       9 local_moran_i standard    0.0513  
      10 local_moran_i standard   -0.000120
      # i 9,990 more rows
…
---

    Code
      withr::with_seed(123, ww_local_moran_i(worldclim_loaded, bio13, bio19))
    Output
      # A tibble: 10,000 x 3
         .metric       .estimator .estimate
         <chr>         <chr>          <dbl>
       1 local_moran_i standard    0.0167  
       2 local_moran_i standard    0.409   
       3 local_moran_i standard    0.00614 
       4 local_moran_i standard    0.00542 
       5 local_moran_i standard    0.0120  
       6 local_moran_i standard    4.87    
       7 local_moran_i standard    1.79    
       8 local_moran_i standard    0.000766
       9 local_moran_i standard    0.0513  
      10 local_moran_i standard   -0.000120
      # i 9,990 more rows

---

    Code
      withr::with_seed(123, ww_local_moran_i(worldclim_loaded, bio13, bio19, function(
        data) ww_build_weights(ww_make_point_neighbors(data, k = 5))))
    Output
      # A tibble: 10,000 x 3
         .metric       .estimator  .estimate
         <chr>         <chr>           <dbl>
       1 local_moran_i standard    0.0159   
       2 local_moran_i standard    0.226    
       3 local_moran_i standard    0.00650  
       4 local_moran_i standard    0.00371  
       5 local_moran_i standard    0.0114   
       6 local_moran_i standard    5.11     
       7 local_moran_i standard   -9.92     
       8 local_moran_i standard    0.000238 
       9 local_moran_i standard    0.0386   
      10 local_moran_i standard    0.0000756
      # i 9,990 more rows
…
