Variable Importance Plots—An Introduction to the vip Package • vip
…
Constructing VIPs in R

We’ll illustrate major concepts using the Friedman 1 benchmark problem described in Friedman (1991) and Breiman (1996):

\[\begin{equation}
  Y_i = 10 \sin\left(\pi X_{1i} X_{2i}\right) + 20 \left(X_{3i} - 0.5\right) ^ 2 + 10 X_{4i} + 5 X_{5i} + \epsilon_i, \quad i = 1, 2, \dots, n,
\tag{1}
\end{equation}\]

where \(\epsilon_i \stackrel{iid}{\sim} N\left(0, \sigma^2\right)\). Data from this model can be generated using the vip::gen_friedman(). By default, the features consist of 10 independent variables uniformly distributed on the interval \(\left[0,1\right]\); however, only 5 out of these 10 are actually used in the true model. The code chunk below simulates 500 observations from the model in Equation (1) with \(\sigma = 1\); see ?vip::gen_friedman for details.

trn <- vip::gen_friedman(500, sigma = 1, seed = 101)  # simulate training data
tibble::as_tibble(trn)  # inspect output

## # A tibble: 500 × 11
##        y     x1    x2    x3    x4     x5      x6    x7    x8    x9   x10
##    <dbl>  <dbl> <dbl> <dbl> <dbl>  <dbl>   <dbl> <dbl> <dbl> <dbl> <dbl>
##  1 14.9  0.372  0.406 0.102 0.322 0.693  0.758   0.518 0.530 0.878 0.763
##  2 15.3  0.0438 0.602 0.602 0.999 0.776  0.533   0.509 0.487 0.118 0.176
##  3 15.1  0.710  0.362 0.254 0.548 0.0180 0.765   0.715 0.844 0.334 0.118
##  4 10.7  0.658  0.291 0.542 0.327 0.230  0.301   0.177 0.346 0.474 0.283
##  5 17.6  0.250  0.794 0.383 0.947 0.462  0.00487 0.270 0.114 0.489 0.311
##  6 18.3  0.300  0.701 0.992 0.386 0.666  0.198   0.924 0.775 0.736 0.974
##  7 14.6  0.585  0.365 0.283 0.488 0.845  0.466   0.715 0.202 0.905 0.640
##  8 17.0  0.333  0.552 0.858 0.509 0.697  0.388   0.260 0.355 0.517 0.165
##  9  8.54 0.622  0.118 0.490 0.390 0.468  0.360   0.572 0.891 0.682 0.717
## 10 15.0  0.546  0.150 0.476 0.706 0.829  0.373   0.192 0.873 0.456 0.694
## # ℹ 490 more rows
…
Linear models

In multiple linear regression, or linear models (LMs), the absolute value of the \(t\)-statistic (or some other scaled variant of the estimated coefficients) is commonly used as a measure of VI.7. Motivation for the use of the assoicated \(t\)-statistic is given in Bring (1994). The same idea also extends to generalized linear models (GLMs). In the code chunk below, we fit an LM to the simulated Friedman data (trn) allowing for all main effects and two-way interactions, then use the step() function to perform backward elimination. The resulting VIP is displayed in Figure ??.

# Fit a LM
linmod <- lm(y ~ .^2, data = trn)
backward <- step(linmod, direction = "backward", trace = 0)

# Extract VI scores
(vi_backward <- vi(backward))

## # A tibble: 21 × 3
##    Variable Importance Sign 
##    <chr>         <dbl> <chr>
##  1 x4            14.2  POS  
##  2 x2             7.31 POS  
##  3 x1             5.63 POS  
##  4 x5             5.21 POS  
##  5 x3:x5          2.46 POS  
##  6 x1:x10         2.41 NEG  
##  7 x2:x6          2.41 NEG  
##  8 x1:x5          2.37 NEG  
##  9 x10            2.21 POS  
## 10 x3:x4          2.01 NEG  
## # ℹ 11 more rows
…
