…
> flush(stderr()); flush(stdout())
> 
> ### Name: ww_local_geary_c
> ### Title: Local Geary's C statistic
> ### Aliases: ww_local_geary_c ww_local_geary_c_vec ww_local_geary_pvalue
> ###   ww_local_geary_pvalue_vec
> 
> ### ** Examples
> 
> guerry_model <- guerry
> guerry_lm <- lm(Crm_prs ~ Litercy, guerry_model)
> guerry_model$predictions <- predict(guerry_lm, guerry_model)
> 
> ww_local_geary_c(guerry_model, Crm_prs, predictions)
# A tibble: 85 × 3
   .metric       .estimator .estimate
   <chr>         <chr>          <dbl>
 1 local_geary_c standard       0.981
 2 local_geary_c standard       0.836
 3 local_geary_c standard       0.707
 4 local_geary_c standard       0.108
 5 local_geary_c standard       0.264
 6 local_geary_c standard       1.36 
 7 local_geary_c standard       3.64 
 8 local_geary_c standard       1.57 
 9 local_geary_c standard       0.867
10 local_geary_c standard       0.737
# ℹ 75 more rows
> ww_local_geary_pvalue(guerry_model, Crm_prs, predictions)
# A tibble: 85 × 3
   .metric            .estimator .estimate
   <chr>              <chr>          <dbl>
 1 local_geary_pvalue standard       0.235
 2 local_geary_pvalue standard       0.249
 3 local_geary_pvalue standard       0.159
 4 local_geary_pvalue standard       0.140
 5 local_geary_pvalue standard       0.309
 6 local_geary_pvalue standard       0.128
 7 local_geary_pvalue standard       0.450
 8 local_geary_pvalue standard       0.217
 9 local_geary_pvalue standard       0.772
10 local_geary_pvalue standard       0.410
# ℹ 75 more rows
…
> flush(stderr()); flush(stdout())
> 
> ### Name: ww_local_getis_ord_g
> ### Title: Local Getis-Ord G and G* statistic
> ### Aliases: ww_local_getis_ord_g ww_local_getis_ord_g_vec
> ###   ww_local_getis_ord_g_pvalue ww_local_getis_ord_g_pvalue_vec
> 
> ### ** Examples
> 
> guerry_model <- guerry
> guerry_lm <- lm(Crm_prs ~ Litercy, guerry_model)
> guerry_model$predictions <- predict(guerry_lm, guerry_model)
> 
> ww_local_getis_ord_g(guerry_model, Crm_prs, predictions)
# A tibble: 85 × 3
   .metric           .estimator .estimate
   <chr>             <chr>          <dbl>
 1 local_getis_ord_g standard       0.913
 2 local_getis_ord_g standard       2.49 
 3 local_getis_ord_g standard       2.15 
 4 local_getis_ord_g standard      -1.58 
 5 local_getis_ord_g standard      -1.19 
 6 local_getis_ord_g standard      -1.68 
 7 local_getis_ord_g standard       0.627
 8 local_getis_ord_g standard      -1.60 
 9 local_getis_ord_g standard       0.964
10 local_getis_ord_g standard      -2.71 
# ℹ 75 more rows
> ww_local_getis_ord_g_pvalue(guerry_model, Crm_prs, predictions)
# A tibble: 85 × 3
   .metric                  .estimator .estimate
   <chr>                    <chr>          <dbl>
 1 local_getis_ord_g_pvalue standard     0.389  
 2 local_getis_ord_g_pvalue standard     0.0206 
 3 local_getis_ord_g_pvalue standard     0.0377 
 4 local_getis_ord_g_pvalue standard     0.143  
 5 local_getis_ord_g_pvalue standard     0.235  
 6 local_getis_ord_g_pvalue standard     0.0801 
 7 local_getis_ord_g_pvalue standard     0.556  
 8 local_getis_ord_g_pvalue standard     0.128  
 9 local_getis_ord_g_pvalue standard     0.384  
10 local_getis_ord_g_pvalue standard     0.00678
# ℹ 75 more rows
…
> flush(stderr()); flush(stdout())
> 
> ### Name: ww_local_moran_i
> ### Title: Local Moran's I statistic
> ### Aliases: ww_local_moran_i ww_local_moran_i_vec ww_local_moran_pvalue
> ###   ww_local_moran_pvalue_vec
> 
> ### ** Examples
> 
> guerry_model <- guerry
> guerry_lm <- lm(Crm_prs ~ Litercy, guerry_model)
> guerry_model$predictions <- predict(guerry_lm, guerry_model)
> 
> ww_local_moran_i(guerry_model, Crm_prs, predictions)
# A tibble: 85 × 3
   .metric       .estimator .estimate
   <chr>         <chr>          <dbl>
 1 local_moran_i standard      0.530 
 2 local_moran_i standard      0.858 
 3 local_moran_i standard      0.759 
 4 local_moran_i standard      0.732 
 5 local_moran_i standard      0.207 
 6 local_moran_i standard      0.860 
 7 local_moran_i standard      0.692 
 8 local_moran_i standard      1.69  
 9 local_moran_i standard     -0.0109
10 local_moran_i standard      0.710 
# ℹ 75 more rows
> ww_local_moran_pvalue(guerry_model, Crm_prs, predictions)
# A tibble: 85 × 3
   .metric            .estimator .estimate
   <chr>              <chr>          <dbl>
 1 local_moran_pvalue standard     0.361  
 2 local_moran_pvalue standard     0.0127 
 3 local_moran_pvalue standard     0.0318 
 4 local_moran_pvalue standard     0.115  
 5 local_moran_pvalue standard     0.234  
 6 local_moran_pvalue standard     0.0935 
 7 local_moran_pvalue standard     0.531  
 8 local_moran_pvalue standard     0.109  
 9 local_moran_pvalue standard     0.335  
10 local_moran_pvalue standard     0.00663
# ℹ 75 more rows
…
Attaching package: ‘vip’

The following object is masked from ‘package:utils’:

    vi

> train <- gen_friedman(1000, seed = 101)
> test <- train[701:1000, ]
> train <- train[1:700, ]
> pp <- stats::ppr(y ~ ., data = train, nterms = 11)
> importance <- vi_permute(pp, target = "y", metric = "rsquared", pred_wrapper = predict)
> aoa <- ww_area_of_applicability(y ~ ., train, test, importance = importance)
> predict(aoa, test)
# A tibble: 300 × 2
       di aoa  
    <dbl> <lgl>
 1 0.175  TRUE 
 2 0.191  TRUE 
 3 0.190  TRUE 
 4 0.0802 TRUE 
 5 0.141  TRUE 
 6 0.287  TRUE 
 7 0.178  TRUE 
 8 0.205  TRUE 
 9 0.134  TRUE 
10 0.177  TRUE 
# ℹ 290 more rows
…
+ ww_area_of_applicability(
+   as.matrix(train[2:11]),
+   as.matrix(test[2:11]),
+   importance
+ )
+ ## Don't show: 
+ }) # examplesIf
> train <- vip::gen_friedman(1000, seed = 101)
> test <- train[701:1000, ]
> train <- train[1:700, ]
> pp <- stats::ppr(y ~ ., data = train, nterms = 11)
> importance <- vip::vi_permute(pp, target = "y", metric = "rsquared", pred_wrapper = predict)
> aoa <- ww_area_of_applicability(y ~ ., train, test, importance = importance)
> predict(aoa, test)
# A tibble: 300 × 2
       di aoa  
    <dbl> <lgl>
 1 0.175  TRUE 
 2 0.191  TRUE 
 3 0.190  TRUE 
 4 0.0802 TRUE 
 5 0.141  TRUE 
 6 0.287  TRUE 
 7 0.178  TRUE 
 8 0.205  TRUE 
 9 0.134  TRUE 
10 0.177  TRUE 
# ℹ 290 more rows
…
